digraph "CarProgram"
{
  edge [fontname="Helvetica",fontsize="10",labelfontname="Helvetica",labelfontsize="10"];
  node [fontname="Helvetica",fontsize="10",shape=record];
  Node1 [label="CarProgram",height=0.2,width=0.4,color="black", fillcolor="grey75", style="filled", fontcolor="black"];
  Node2 -> Node1 [dir="back",color="darkorchid3",fontsize="10",style="dashed",label=" m_data_linear" ,fontname="Helvetica"];
  Node2 [label="LinkedList\< float,\l CarData \>",height=0.2,width=0.4,color="black", fillcolor="white", style="filled",URL="$classLinkedList.html"];
  Node3 -> Node2 [dir="back",color="darkorchid3",fontsize="10",style="dashed",label=" ptrEnd\nptrFront" ,fontname="Helvetica"];
  Node3 [label="Node\< float, CarData \>",height=0.2,width=0.4,color="black", fillcolor="white", style="filled",URL="$classNode.html"];
  Node3 -> Node3 [dir="back",color="darkorchid3",fontsize="10",style="dashed",label=" ptrRight\nptrLeft" ,fontname="Helvetica"];
  Node4 -> Node3 [dir="back",color="darkorchid3",fontsize="10",style="dashed",label=" data" ,fontname="Helvetica"];
  Node4 [label="CarData",height=0.2,width=0.4,color="black", fillcolor="white", style="filled",URL="$structCarData.html"];
  Node5 -> Node1 [dir="back",color="darkorchid3",fontsize="10",style="dashed",label=" m_data_tree" ,fontname="Helvetica"];
  Node5 [label="BinarySearchTree\< float,\l CarData \>",height=0.2,width=0.4,color="black", fillcolor="white", style="filled",URL="$classBinarySearchTree.html"];
  Node3 -> Node5 [dir="back",color="darkorchid3",fontsize="10",style="dashed",label=" m_ptrRoot" ,fontname="Helvetica"];
}
